[api-updater (non-obsolete-error-filter)] 10/19/2022 12:21:55 AM : Starting D:/Unity Software/2020.3.32f1/Editor/Data/Tools/ScriptUpdater/APIUpdater.NonObsoleteApiUpdaterDetector.exe
[api-updater (non-obsolete-error-filter)] 
----------------------------------
jit/startup time      : 673.7041ms
moved types parse time: 90ms
candidates parse time : 1ms
C# parse time         : 1060ms
candidates check time : 33ms
console write time    : 2ms

[api-updater (non-obsolete-error-filter)] 10/20/2022 12:07:35 AM : Starting D:/Unity Software/2020.3.32f1/Editor/Data/Tools/ScriptUpdater/APIUpdater.NonObsoleteApiUpdaterDetector.exe
[api-updater (non-obsolete-error-filter)] 
----------------------------------
jit/startup time      : 1955.3689ms
moved types parse time: 85ms
candidates parse time : 2ms
C# parse time         : 1605ms
candidates check time : 594ms
console write time    : 1ms

[api-updater (non-obsolete-error-filter)] 10/22/2022 12:45:52 PM : Starting D:/Unity Software/2020.3.32f1/Editor/Data/Tools/ScriptUpdater/APIUpdater.NonObsoleteApiUpdaterDetector.exe
[api-updater (non-obsolete-error-filter)] 
----------------------------------
jit/startup time      : 2085.4874ms
moved types parse time: 115ms
candidates parse time : 16ms
C# parse time         : 1518ms
candidates check time : 52ms
console write time    : 1ms

[api-updater (non-obsolete-error-filter)] 10/22/2022 12:53:10 PM : Starting D:/Unity Software/2020.3.32f1/Editor/Data/Tools/ScriptUpdater/APIUpdater.NonObsoleteApiUpdaterDetector.exe
[api-updater (non-obsolete-error-filter)] 
----------------------------------
jit/startup time      : 95.776ms
moved types parse time: 67ms
candidates parse time : 1ms
C# parse time         : 239ms
candidates check time : 48ms
console write time    : 0ms

