%YAML 1.1
%TAG !u! tag:unity3d.com,2011:
--- !u!1045 &1
EditorBuildSettings:
  m_ObjectHideFlags: 0
  serializedVersion: 2
  m_Scenes:
  - enabled: 1
    path: Assets/Scenes/mobileprogramminglobby.unity
    guid: ba92635a02bc9cb46b383d3e8d121a58
  m_configObjects: {}
